<?xml version="1.0" encoding="UTF-8" standalone="no"?>
<svg
   width="16"
   height="16"
   viewBox="0 0 4.2333333 4.2333335"
   version="1.1"
   id="svg8"
   sodipodi:docname="psensor_normal.svg"
   inkscape:version="1.2.2 (b0a8486541, 2022-12-01)"
   xmlns:inkscape="http://www.inkscape.org/namespaces/inkscape"
   xmlns:sodipodi="http://sodipodi.sourceforge.net/DTD/sodipodi-0.dtd"
   xmlns="http://www.w3.org/2000/svg"
   xmlns:svg="http://www.w3.org/2000/svg">
  <defs
     id="defs2" />
  <sodipodi:namedview
     id="base"
     pagecolor="#6c6c6c"
     bordercolor="#666666"
     borderopacity="1.0"
     inkscape:pageopacity="0"
     inkscape:pageshadow="2"
     inkscape:zoom="22.627417"
     inkscape:cx="12.131301"
     inkscape:cy="6.8059028"
     inkscape:document-units="px"
     inkscape:current-layer="layer1"
     inkscape:document-rotation="0"
     showgrid="false"
     inkscape:window-width="1920"
     inkscape:window-height="1011"
     inkscape:window-x="0"
     inkscape:window-y="0"
     inkscape:window-maximized="1"
     units="px"
     inkscape:pagecheckerboard="true"
     inkscape:showpageshadow="2"
     inkscape:deskcolor="#d1d1d1" />
  <g
     style="display:inline"
     inkscape:label="Graphic"
     id="layer1"
     inkscape:groupmode="layer">
    <g
       id="g850"
       transform="translate(0,-0.13229167)">
      <path
         id="path849"
         style="display:inline;fill:#ffffff;fill-opacity:1;stroke:none;stroke-width:0.0103827;stroke-miterlimit:4;stroke-dasharray:none"
         d="m 2.0299366,1.7766777 c -0.0949,3.947e-4 -0.1716063,0.077463 -0.1715538,0.1723649 -3e-7,0.2965332 0,0.5984872 0,0.8524969 C 1.7273603,2.8668515 1.6445805,3.0006823 1.6446501,3.1470806 1.644758,3.3602057 1.817622,3.5328884 2.0307477,3.5327725 2.2437149,3.5326644 2.4163318,3.3600475 2.4164396,3.1470806 2.4165092,3.0006823 2.333729,2.8668519 2.202707,2.8015395 c 0,-0.2973095 0,-0.5982338 0,-0.8529025 -1.715e-4,-0.0949 -0.077059,-0.1717876 -0.1719593,-0.1719593 -2.701e-4,-8e-7 -5.399e-4,-8e-7 -8.147e-4,0 z"
         sodipodi:nodetypes="ccccccccsc" />
      <path
         id="path845"
         style="color:#000000;font-style:normal;font-variant:normal;font-weight:normal;font-stretch:normal;font-size:medium;line-height:normal;font-family:sans-serif;font-variant-ligatures:normal;font-variant-position:normal;font-variant-caps:normal;font-variant-numeric:normal;font-variant-alternates:normal;font-variant-east-asian:normal;font-feature-settings:normal;font-variation-settings:normal;text-indent:0;text-align:start;text-decoration:none;text-decoration-line:none;text-decoration-style:solid;text-decoration-color:#000000;letter-spacing:normal;word-spacing:normal;text-transform:none;writing-mode:lr-tb;direction:ltr;text-orientation:mixed;dominant-baseline:auto;baseline-shift:baseline;text-anchor:start;white-space:normal;shape-padding:0;shape-margin:0;inline-size:0;clip-rule:nonzero;display:inline;overflow:visible;visibility:visible;isolation:auto;mix-blend-mode:normal;color-interpolation:sRGB;color-interpolation-filters:linearRGB;solid-color:#000000;solid-opacity:1;vector-effect:none;fill:#ffffff;fill-opacity:1;fill-rule:nonzero;stroke:none;stroke-width:0.750002;stroke-linecap:butt;stroke-linejoin:miter;stroke-miterlimit:4;stroke-dasharray:none;stroke-dashoffset:0;stroke-opacity:1;color-rendering:auto;image-rendering:auto;shape-rendering:auto;text-rendering:auto;enable-background:accumulate;stop-color:#000000"
         d="m 7.6738281,1.625 c -1.375435,2.59e-5 -2.4980208,1.1226132 -2.4980469,2.4980469 0,1.7363281 0,3.4726562 0,5.2089843 -0.6578346,0.6645171 -1.0625257,1.5415548 -1.0625,2.4824218 8.44e-5,1.962029 1.5984952,3.560555 3.5605469,3.560547 1.962051,7e-6 3.5624159,-1.598241 3.5624999,-3.560547 -2.6e-5,-0.940769 -0.404758,-1.817915 -1.0625,-2.4824218 V 8.1503906 h 2.119141 c 0.3364,-9.71e-5 0.611302,-0.2801003 0.611328,-0.625 -2.9e-5,-0.3449008 -0.274926,-0.6249032 -0.611328,-0.625 H 10.173828 V 5.75 H 12.09375 C 12.430151,5.7499029 12.705052,5.4698996 12.705078,5.125 12.705049,4.7800992 12.430153,4.5000968 12.09375,4.5 h -1.919922 c 0,-0.125651 0,-0.2513021 0,-0.3769531 C 10.173805,2.7471616 9.0493308,1.6249298 7.6738281,1.625 Z m -0.00391,1.3496094 h 0.00195 c 0.00187,-4.7e-6 0.00203,-4.7e-6 0.00391,0 0.6592041,0.00119 1.2019356,0.5439217 1.203125,1.203125 0,1.9070301 0,3.8136622 0,5.8261716 0.6117836,0.41138 1.0296533,1.06124 1.0292969,1.810547 -6.217e-4,1.228141 -1.0042802,2.231798 -2.2324219,2.232422 -1.2290433,6.68e-4 -2.233752,-1.00338 -2.234375,-2.232422 -3.56e-4,-0.749307 0.4175139,-1.399167 1.0292969,-1.810547 0,-1.9110108 0,-4.0179004 0,-5.8242185 -3.571e-4,-0.6592208 0.540016,-1.202338 1.1992219,-1.2050781 z"
         transform="scale(0.26458334)"
         sodipodi:nodetypes="ccccccccccccccccccccccccccccccc" />
    </g>
  </g>
</svg>
